…
Um dicionário é um conjunto de verbetes e descrições que indicam o significado de cada variável em um banco de dados e os possíveis valores que esta variável pode assumir. Como o experimentalista que coleta os dados e os analista de dados podem ser pessoas diferentes, o dicionário é uma ferramenta essencial para facilitar a comunicação entre eles.

Atenção: Para que um banco de dados seja útil, aquele que o compila deve especificar de antemão os possíveis valores que cada variável pode assumir e se ater a estes valores. Por exemplo, digamos que uma variável seja o “número de bactérias observados na urina”. Observações como “2”, “4” e “7” são números e estão dentro das especificações. Por outro lado, seria prejudicial anotar no banco de dados “5, mas também observei uma estrutura que pode ou não ser uma bactéria adicional”. A inserção de texto em uma variável que deveria ser um número quebra padrões e torna muito mais difícil a análise do banco de dados.

Exemplo de elementos da análise estatística

Em 1936, Edgar Anderson coletou informações sobre flores pertencentes a três espécies do gênero Iris (Iris setosa, Iris virginica e Iris versicolor). Os dados estão disponíveis em (Anderson 1936). Neste caso, consideramos como população o conjunto de todas as flores de cada uma das três espécies. A amostra é o conjunto de flores que foram observadas e registradas por Anderson. As variáveis anotadas foram o tamanho em centímetro das sépalas e das pétalas das flores. Observe, a seguir, uma representação Tidy das primeiras 10 unidades amostrais no banco de dados obtido por Anderson:

require(tidyverse)
data(iris)
iris = as.tibble(iris)
print(iris)

## # A tibble: 150 x 5
##    Sepal.Length Sepal.Width Petal.Length Petal.Width Species
##           <dbl>       <dbl>        <dbl>       <dbl> <fct>  
##  1          5.1         3.5          1.4         0.2 setosa 
##  2          4.9         3            1.4         0.2 setosa 
##  3          4.7         3.2          1.3         0.2 setosa 
##  4          4.6         3.1          1.5         0.2 setosa 
##  5          5           3.6          1.4         0.2 setosa 
##  6          5.4         3.9          1.7         0.4 setosa 
##  7          4.6         3.4          1.4         0.3 setosa 
##  8          5           3.4          1.5         0.2 setosa 
##  9          4.4         2.9          1.4         0.2 setosa 
## 10          4.9         3.1          1.5         0.1 setosa 
## # ... with 140 more rows
…
