Aprendizado Estatístico de Máquina
…
Quais variáveis foram escolhidas?

table(coef(vc_lasso,s=vc_lasso$lambda.min)[,1]!=0)

## 
## FALSE  TRUE 
##   598   448

coefs_estimates <- coef(vc_lasso,s=vc_lasso$lambda.min) 
coefs <- coefs_estimates %>% as.matrix %>% as_tibble 
names(coefs)="Estimativa"
coefs %>% mutate(variavel=rownames(coefs_estimates)) %>% arrange(desc(abs(Estimativa)))

## # A tibble: 1,046 x 2
##    Estimativa variavel    
##         <dbl> <chr>       
##  1      4.07  (Intercept) 
##  2     -1.18  worst       
##  3     -1.10  terrible    
##  4     -0.906 awful       
##  5     -0.763 waste       
##  6     -0.711 disappointed
##  7     -0.606 weak        
##  8     -0.526 avoid       
##  9     -0.516 return      
## 10     -0.507 worse       
## # ... with 1,036 more rows
…
